…
    ## # A tibble: 50 × 11
    ##     mtry trees min_n tree_depth    learn_rate .metric .estimator  mean     n
    ##    <int> <int> <int>      <int>         <dbl> <chr>   <chr>      <dbl> <int>
    ##  1     5    41     7          5 0.00000000885 f_meas  binary     0.905    10
    ##  2     5    14     7         11 0.000000925   f_meas  binary     0.941    10
    ##  3     5    35     8          5 0.00119       f_meas  binary     0.943    10
    ##  4     6    29     6          7 0.000000221   f_meas  binary     0.951    10
    ##  5     6    43     7         10 0.0000000869  f_meas  binary     0.941    10
    ##  6     6    40     8          4 0.000000421   f_meas  binary     0.947    10
    ##  7     6    41     8          6 0.00000000872 f_meas  binary     0.917    10
    ##  8     7    45     6         10 0.00000506    f_meas  binary     0.953    10
    ##  9     7    32     8          4 0.0000000205  f_meas  binary     0.936    10
    ## 10     7    40     8         10 0.0000000299  f_meas  binary     0.939    10
    ## # ℹ 40 more rows
    ## # ℹ 2 more variables: std_err <dbl>, .config <chr>
…
    ## # A tibble: 50 × 11
    ##     mtry trees min_n tree_depth    learn_rate .metric .estimator  mean     n
    ##    <int> <int> <int>      <int>         <dbl> <chr>   <chr>      <dbl> <int>
    ##  1     5    41     7          5 0.00000000885 f_meas  binary     0.916    10
    ##  2     5    14     7         11 0.000000925   f_meas  binary     0.948    10
    ##  3     5    35     8          5 0.00119       f_meas  binary     0.943    10
    ##  4     6    29     6          7 0.000000221   f_meas  binary     0.953    10
    ##  5     6    43     7         10 0.0000000869  f_meas  binary     0.958    10
    ##  6     6    40     8          4 0.000000421   f_meas  binary     0.950    10
    ##  7     6    41     8          6 0.00000000872 f_meas  binary     0.922    10
    ##  8     7    45     6         10 0.00000506    f_meas  binary     0.961    10
    ##  9     7    32     8          4 0.0000000205  f_meas  binary     0.941    10
    ## 10     7    40     8         10 0.0000000299  f_meas  binary     0.946    10
    ## # ℹ 40 more rows
    ## # ℹ 2 more variables: std_err <dbl>, .config <chr>
…
