…
    ## # A tibble: 50 × 11
    ##     mtry trees min_n tree_depth learn_rate .metric .estimator  mean     n
    ##    <int> <int> <int>      <int>      <dbl> <chr>   <chr>      <dbl> <int>
    ##  1     5    42     7         11   1.87e- 4 f_meas  binary     0.947    10
    ##  2     5    33     8          5   8.83e- 3 f_meas  binary     0.953    10
    ##  3     5    40     8          9   1.75e- 2 f_meas  binary     0.947    10
    ##  4     6    43     7         10   3.24e- 5 f_meas  binary     0.950    10
    ##  5     6    45     8          9   6.85e- 9 f_meas  binary     0.914    10
    ##  6     6    32     8         12   2.96e- 5 f_meas  binary     0.950    10
    ##  7     7    36     7          9   1.20e- 4 f_meas  binary     0.952    10
    ##  8     7    46     7         11   4.33e- 8 f_meas  binary     0.945    10
    ##  9     7    34     8          6   3.63e- 7 f_meas  binary     0.951    10
    ## 10     7    30     8          7   3.45e-10 f_meas  binary     0.845    10
    ## # ℹ 40 more rows
    ## # ℹ 2 more variables: std_err <dbl>, .config <chr>
…
    ## # A tibble: 50 × 11
    ##     mtry trees min_n tree_depth learn_rate .metric .estimator  mean     n
    ##    <int> <int> <int>      <int>      <dbl> <chr>   <chr>      <dbl> <int>
    ##  1     5    49     6          7   2.74e- 3 f_meas  binary     0.961    10
    ##  2     5    14     6          9   9.35e- 5 f_meas  binary     0.956    10
    ##  3     5    36     8         11   3.24e- 4 f_meas  binary     0.952    10
    ##  4     6    27     6          8   1.42e-10 f_meas  binary     0.683    10
    ##  5     6    39     6         12   3.68e-10 f_meas  binary     0.683    10
    ##  6     6    39     7          8   7.95e- 5 f_meas  binary     0.946    10
    ##  7     6    18     8          6   1.61e- 6 f_meas  binary     0.943    10
    ##  8     6    33     8          9   5.47e- 9 f_meas  binary     0.858    10
    ##  9     7    43     8          9   1.10e- 6 f_meas  binary     0.948    10
    ## 10     7    23     8         11   1.10e- 7 f_meas  binary     0.938    10
    ## # ℹ 40 more rows
    ## # ℹ 2 more variables: std_err <dbl>, .config <chr>
…
